%YAML 1.1
%TAG !u! tag:unity3d.com,2011:
--- !u!114 &11400000
MonoBehaviour:
  m_ObjectHideFlags: 0
  m_CorrespondingSourceObject: {fileID: 0}
  m_PrefabInstance: {fileID: 0}
  m_PrefabAsset: {fileID: 0}
  m_GameObject: {fileID: 0}
  m_Enabled: 1
  m_EditorHideFlags: 0
  m_Script: {fileID: 11500000, guid: 4d8967465941cfa4cbc3f592d1a8a125, type: 3}
  m_Name: Health
  m_EditorClassIdentifier: 
  maxSprite: {fileID: 0}
  levels:
  - name: Health 1
    description:
      icon: {fileID: 0}
      description: 
    settings:
      max: 100
    cost:
    - type: 0
      value: 0
    - type: 0
      value: 0
    fraction:
    - Type: 0
      Rang: 0
    - Type: 0
      Rang: 0
  - name: Health 2
    description:
      icon: {fileID: 0}
      description: 
    settings:
      max: 200
    cost:
    - type: 0
      value: 0
    - type: 0
      value: 0
    fraction:
    - Type: 0
      Rang: 0
    - Type: 0
      Rang: 0
