%YAML 1.1
%TAG !u! tag:unity3d.com,2011:
--- !u!114 &11400000
MonoBehaviour:
  m_ObjectHideFlags: 0
  m_CorrespondingSourceObject: {fileID: 0}
  m_PrefabInstance: {fileID: 0}
  m_PrefabAsset: {fileID: 0}
  m_GameObject: {fileID: 0}
  m_Enabled: 1
  m_EditorHideFlags: 0
  m_Script: {fileID: 11500000, guid: a5ee6ea4fe6a79e4ebf74a190f75f9fd, type: 3}
  m_Name: Fraction2
  m_EditorClassIdentifier: 
  type: 1
  ultSkill:
    Sprite: {fileID: 21300000, guid: 8afb57fea8c4eea4a8085e91c810380b, type: 3}
    ActivateRang: 1
    Mult: 2
    Type: 1
  sprites:
    fractionMenu:
      background: {fileID: 21300000, guid: 62ce01ddca719d34ea9648c586a7cc94, type: 3}
      story: {fileID: 21300000, guid: 62ce01ddca719d34ea9648c586a7cc94, type: 3}
      grind: {fileID: 21300000, guid: 62ce01ddca719d34ea9648c586a7cc94, type: 3}
      upgrade: {fileID: 21300000, guid: 62ce01ddca719d34ea9648c586a7cc94, type: 3}
      back: {fileID: 21300000, guid: 62ce01ddca719d34ea9648c586a7cc94, type: 3}
    grindRoom:
      background: {fileID: 21300000, guid: 62ce01ddca719d34ea9648c586a7cc94, type: 3}
      backgroundSource: {fileID: 21300000, guid: 62ce01ddca719d34ea9648c586a7cc94, type: 3}
      questBoard: {fileID: 21300000, guid: 62ce01ddca719d34ea9648c586a7cc94, type: 3}
      monsterFrame: {fileID: 21300000, guid: 62ce01ddca719d34ea9648c586a7cc94, type: 3}
      sourceFrame: {fileID: 21300000, guid: 62ce01ddca719d34ea9648c586a7cc94, type: 3}
      select: {fileID: 21300000, guid: 62ce01ddca719d34ea9648c586a7cc94, type: 3}
      back: {fileID: 21300000, guid: 62ce01ddca719d34ea9648c586a7cc94, type: 3}
    storyRoom:
      background: {fileID: 21300000, guid: 62ce01ddca719d34ea9648c586a7cc94, type: 3}
      backRound: {fileID: 21300000, guid: 62ce01ddca719d34ea9648c586a7cc94, type: 3}
      frondRound: {fileID: 21300000, guid: 62ce01ddca719d34ea9648c586a7cc94, type: 3}
      start: {fileID: 21300000, guid: 62ce01ddca719d34ea9648c586a7cc94, type: 3}
      back: {fileID: 21300000, guid: 62ce01ddca719d34ea9648c586a7cc94, type: 3}
    upgrade:
      background: {fileID: 21300000, guid: 62ce01ddca719d34ea9648c586a7cc94, type: 3}
      skillFrame: {fileID: 21300000, guid: 62ce01ddca719d34ea9648c586a7cc94, type: 3}
      select: {fileID: 21300000, guid: 62ce01ddca719d34ea9648c586a7cc94, type: 3}
      back: {fileID: 21300000, guid: 62ce01ddca719d34ea9648c586a7cc94, type: 3}
      name: {fileID: 21300000, guid: 62ce01ddca719d34ea9648c586a7cc94, type: 3}
      description: {fileID: 21300000, guid: 62ce01ddca719d34ea9648c586a7cc94, type: 3}
      statistics: {fileID: 21300000, guid: 62ce01ddca719d34ea9648c586a7cc94, type: 3}
      rangs: {fileID: 21300000, guid: 62ce01ddca719d34ea9648c586a7cc94, type: 3}
      sources: {fileID: 21300000, guid: 62ce01ddca719d34ea9648c586a7cc94, type: 3}
      upgrade: {fileID: 21300000, guid: 62ce01ddca719d34ea9648c586a7cc94, type: 3}
      close: {fileID: 21300000, guid: 62ce01ddca719d34ea9648c586a7cc94, type: 3}
  storyQuests:
  - {fileID: 11400000, guid: fe7e4bdbeadba4f44a11f56c82f53bbf, type: 2}
  grindQuests:
  - {fileID: 11400000, guid: 92033512c695fac42b6d4f20aab1acc8, type: 2}
  - {fileID: 11400000, guid: 7c1b7566c9cd1f44d8f8e95256fcafb0, type: 2}
